{
  "vulnerabilities": [
    {
      "id": "f67257fcc95000cd1a0aa090c0f891c32cb9358d",
      "category": "container_scanning",
      "message": "CVE-2021-44228 in org.apache.logging.log4j:log4j-api-2.14.1",
      "description": "Apache Log4j2 <=2.14.1 JNDI features used in configuration, log messages, and parameters do not protect against attacker controlled LDAP and other JNDI related endpoints. An attacker who can control log messages or log message parameters can execute arbitrary code loaded from LDAP servers when message lookup substitution is enabled. From log4j 2.15.0, this behavior has been disabled by default. In previous releases (>2.10) this behavior can be mitigated by setting system property \"log4j2.formatMsgNoLookups\" to “true” or by removing the JndiLookup class from the classpath (example: zip -q -d log4j-core-*.jar org/apache/logging/log4j/core/lookup/JndiLookup.class). Java 8u121 (see https://www.oracle.com/java/technologies/javase/8u121-relnotes.html) protects against remote code execution by defaulting \"com.sun.jndi.rmi.object.trustURLCodebase\" and \"com.sun.jndi.cosnaming.object.trustURLCodebase\" to \"false\".",
      "cve": "CVE-2021-44228",
      "severity": "Critical",
      "confidence": "Unknown",
      "solution": "Upgrade org.apache.logging.log4j:log4j-api to 2.15.0",
      "scanner": {
        "id": "trivy",
        "name": "trivy"
      },
      "location": {
        "dependency": {
          "package": {
            "name": "org.apache.logging.log4j:log4j-api"
          },
          "version": "2.14.1"
        },
        "operating_system": "Unknown",
        "image": "g:0.1",
        "default_branch_image": "registry.example.com/group/project:latest"
      },
      "identifiers": [
        {
          "type": "cve",
          "name": "CVE-2021-44228",
          "value": "CVE-2021-44228",
          "url": "http://packetstormsecurity.com/files/165225/Apache-Log4j2-2.14.1-Remote-Code-Execution.html"
        }
      ],
      "links": [
        {
          "url": "http://packetstormsecurity.com/files/165225/Apache-Log4j2-2.14.1-Remote-Code-Execution.html"
        },
        {
          "url": "http://www.openwall.com/lists/oss-security/2021/12/10/1"
        },
        {
          "url": "http://www.openwall.com/lists/oss-security/2021/12/10/2"
        },
        {
          "url": "http://www.openwall.com/lists/oss-security/2021/12/10/3"
        },
        {
          "url": "https://cve.mitre.org/cgi-bin/cvename.cgi?name=CVE-2021-44228"
        },
        {
          "url": "https://github.com/advisories/GHSA-jfh8-c2jp-5v3q"
        },
        {
          "url": "https://github.com/apache/logging-log4j2/commit/c77b3cb39312b83b053d23a2158b99ac7de44dd3"
        },
        {
          "url": "https://github.com/apache/logging-log4j2/pull/608"
        },
        {
          "url": "https://github.com/apache/logging-log4j2/pull/608#issuecomment-990494126"
        },
        {
          "url": "https://github.com/tangxiaofeng7/apache-log4j-poc"
        },
        {
          "url": "https://issues.apache.org/jira/browse/LOG4J2-3198"
        },
        {
          "url": "https://issues.apache.org/jira/browse/LOG4J2-3201"
        },
        {
          "url": "https://logging.apache.org/log4j/2.x/changes-report.html#a2.15.0"
        },
        {
          "url": "https://logging.apache.org/log4j/2.x/manual/lookups.html#JndiLookup"
        },
        {
          "url": "https://logging.apache.org/log4j/2.x/manual/migration.html"
        },
        {
          "url": "https://logging.apache.org/log4j/2.x/security.html"
        },
        {
          "url": "https://nvd.nist.gov/vuln/detail/CVE-2021-44228"
        },
        {
          "url": "https://psirt.global.sonicwall.com/vuln-detail/SNWLID-2021-0032"
        },
        {
          "url": "https://security.netapp.com/advisory/ntap-20211210-0007/"
        },
        {
          "url": "https://tools.cisco.com/security/center/content/CiscoSecurityAdvisory/cisco-sa-apache-log4j-qRuKNEbd"
        },
        {
          "url": "https://www.lunasec.io/docs/blog/log4j-zero-day/"
        },
        {
          "url": "https://www.oracle.com/security-alerts/alert-cve-2021-44228.html"
        }
      ]
    }
  ],
  "remediations": [

  ],
  "scan": {
    "scanner": {
      "id": "trivy",
      "name": "Trivy",
      "url": "https://github.com/aquasecurity/trivy/",
      "vendor": {
        "name": "GitLab"
      },
      "version": "0.21.2"
    },
    "analyzer": {
      "id": "gcs",
      "name": "GitLab Container Scanning",
      "vendor": {
        "name": "GitLab"
      },
      "version": "5.1.3"
    },
    "type": "container_scanning",
    "start_time": "2021-09-15T08:36:08",
    "end_time": "2021-09-15T08:36:25",
    "status": "success"
  },
  "version": "14.1.2"
}
